<?xml version="1.0" encoding="utf-8"?>
<!-- Generator: Adobe Illustrator 16.0.0, SVG Export Plug-In . SVG Version: 6.00 Build 0)  -->
<!DOCTYPE svg PUBLIC "-//W3C//DTD SVG 1.1//EN" "http://www.w3.org/Graphics/SVG/1.1/DTD/svg11.dtd">
<svg version="1.1" xmlns="http://www.w3.org/2000/svg" xmlns:xlink="http://www.w3.org/1999/xlink" x="0px" y="0px" width="25px"
	 height="25px" viewBox="0 0 25 25" enable-background="new 0 0 25 25" xml:space="preserve">
<g id="Ebene_1" display="none">
	<g transform="translate(-60.0002 -726)" display="inline">
		<path d="M70,726v10H60v4.999h10V751h5v-10.001H85V736H74.999v-10H70z"/>
	</g>
</g>
<g id="Ebene_2" display="none">
	<path display="inline" d="M3.125,1.563h7.813v3.125H6.25c-0.846,0-1.563,0.65-1.563,1.563v4.688H1.563V3.125
		C1.563,2.308,2.279,1.563,3.125,1.563z"/>
	<path display="inline" d="M1.563,21.875v-7.813h3.125v4.688c0,0.846,0.65,1.563,1.563,1.563h4.688v3.125H3.125
		C2.307,23.438,1.563,22.721,1.563,21.875z"/>
	<path display="inline" d="M21.875,1.563h-7.813v3.125h4.688c0.846,0,1.563,0.65,1.563,1.563v4.688h3.125V3.125
		C23.438,2.308,22.721,1.563,21.875,1.563z"/>
	<path display="inline" d="M23.438,21.875v-7.813h-3.125v4.688c0,0.846-0.65,1.563-1.563,1.563h-4.688v3.125h7.813
		C22.691,23.438,23.438,22.721,23.438,21.875z"/>
</g>
<g id="Ebene_3">
	<path d="M12.374,1.729c-5.942,0-10.77,4.827-10.77,10.771c0,5.944,4.828,10.772,10.77,10.772c5.944,0,10.771-4.828,10.771-10.772
		C23.145,6.556,18.318,1.729,12.374,1.729z M12.374,3.883c4.754,0,8.617,3.863,8.617,8.616c0,4.752-3.863,8.618-8.617,8.618V3.883z"
		/>
</g>
</svg>
