<?xml version="1.0" encoding="utf-8"?>
<!-- Generator: Adobe Illustrator 16.0.0, SVG Export Plug-In . SVG Version: 6.00 Build 0)  -->
<!DOCTYPE svg PUBLIC "-//W3C//DTD SVG 1.1//EN" "http://www.w3.org/Graphics/SVG/1.1/DTD/svg11.dtd">
<svg version="1.1" xmlns="http://www.w3.org/2000/svg" xmlns:xlink="http://www.w3.org/1999/xlink" x="0px" y="0px" width="25px"
	 height="25px" viewBox="0 0 25 25" enable-background="new 0 0 25 25" xml:space="preserve">
<g id="Ebene_1" display="none">
	<g transform="translate(-60.0002 -726)" display="inline">
		<path d="M70,726v10H60v4.999h10V751h5v-10.001H85V736H74.999v-10H70z"/>
	</g>
</g>
<g id="Ebene_2" display="none">
	<path display="inline" d="M3.125,1.563h7.813v3.125H6.25c-0.846,0-1.563,0.65-1.563,1.563v4.688H1.563V3.125
		C1.563,2.308,2.279,1.563,3.125,1.563z"/>
	<path display="inline" d="M1.563,21.875v-7.813h3.125v4.688c0,0.846,0.65,1.563,1.563,1.563h4.688v3.125H3.125
		C2.307,23.438,1.563,22.721,1.563,21.875z"/>
	<path display="inline" d="M21.875,1.563h-7.813v3.125h4.688c0.846,0,1.563,0.65,1.563,1.563v4.688h3.125V3.125
		C23.438,2.308,22.721,1.563,21.875,1.563z"/>
	<path display="inline" d="M23.438,21.875v-7.813h-3.125v4.688c0,0.846-0.65,1.563-1.563,1.563h-4.688v3.125h7.813
		C22.691,23.438,23.438,22.721,23.438,21.875z"/>
</g>
<g id="Ebene_3" display="none">
	<path display="inline" d="M12.374,1.729c-5.942,0-10.77,4.827-10.77,10.771c0,5.944,4.828,10.772,10.77,10.772
		c5.944,0,10.771-4.828,10.771-10.772C23.145,6.556,18.318,1.729,12.374,1.729z M12.374,3.883c4.754,0,8.617,3.863,8.617,8.616
		c0,4.752-3.863,8.618-8.617,8.618V3.883z"/>
</g>
<g id="Ebene_4" display="none">
	<path display="inline" d="M3.135,6.25c0.28,0.013,0.553,0.092,0.789,0.244l7.891,4.688c0.445,0.281,0.689,0.8,0.689,1.318
		s-0.246,1.037-0.689,1.318l-7.891,4.688c-0.234,0.152-0.509,0.231-0.789,0.244H2.888h-1.33V6.25h1.33H3.135z"/>
	<path display="inline" d="M14.072,6.25c0.279,0.013,0.553,0.092,0.789,0.244l7.891,4.688c0.445,0.281,0.689,0.8,0.689,1.318
		s-0.246,1.037-0.689,1.318l-7.891,4.688c-0.234,0.152-0.51,0.231-0.789,0.244h-0.247h-1.329V6.25h1.329H14.072z"/>
</g>
<g id="Ebene_5" display="none">
	<path display="inline" d="M3.323,2.157h5.425c0.593,0,1.072,0.364,1.072,0.812v18.564c0,0.45-0.479,0.813-1.072,0.813H3.323
		c-0.593,0-1.073-0.362-1.073-0.813V2.969C2.25,2.521,2.729,2.157,3.323,2.157z"/>
	<path display="inline" d="M15.94,2.157h5.425c0.594,0,1.072,0.364,1.072,0.812v18.564c0,0.45-0.479,0.813-1.072,0.813H15.94
		c-0.594,0-1.073-0.362-1.073-0.813V2.969C14.867,2.521,15.347,2.157,15.94,2.157z"/>
</g>
<g id="Ebene_6">
	<g transform="translate(-79.99995 -606)">
		<path d="M82.716,607.829v21.343h2.174l16.307-8.803c0.676-0.369,1.086-1.117,1.086-1.869s-0.41-1.501-1.086-1.868l-16.307-8.804
			H82.716z"/>
	</g>
</g>
</svg>
