<?xml version="1.0" encoding="utf-8"?>
<!-- Generator: Adobe Illustrator 16.0.0, SVG Export Plug-In . SVG Version: 6.00 Build 0)  -->
<!DOCTYPE svg PUBLIC "-//W3C//DTD SVG 1.1//EN" "http://www.w3.org/Graphics/SVG/1.1/DTD/svg11.dtd">
<svg version="1.1" xmlns="http://www.w3.org/2000/svg" xmlns:xlink="http://www.w3.org/1999/xlink" x="0px" y="0px" width="25px"
	 height="25px" viewBox="0 0 25 25" enable-background="new 0 0 25 25" xml:space="preserve">
<g id="Ebene_1" display="none">
	<g transform="translate(-60.0002 -726)" display="inline">
		<path fill="#859900" d="M70,726v10H60v4.999h10V751h5v-10.001H85V736H74.999v-10H70z"/>
	</g>
</g>
<g id="Ebene_2" display="none">
	<path display="inline" fill="#268BD2" d="M3.125,1.563h7.813v3.125H6.25c-0.846,0-1.563,0.65-1.563,1.563v4.688H1.563V3.125
		C1.563,2.308,2.279,1.563,3.125,1.563z"/>
	<path display="inline" fill="#268BD2" d="M1.563,21.875v-7.813h3.125v4.688c0,0.846,0.65,1.563,1.563,1.563h4.688v3.125H3.125
		C2.307,23.438,1.563,22.721,1.563,21.875z"/>
	<path display="inline" fill="#268BD2" d="M21.875,1.563h-7.813v3.125h4.688c0.846,0,1.563,0.65,1.563,1.563v4.688h3.125V3.125
		C23.438,2.308,22.721,1.563,21.875,1.563z"/>
	<path display="inline" fill="#268BD2" d="M23.438,21.875v-7.813h-3.125v4.688c0,0.846-0.65,1.563-1.563,1.563h-4.688v3.125h7.813
		C22.691,23.438,23.438,22.721,23.438,21.875z"/>
</g>
<g id="Ebene_3" display="none">
	<path display="inline" fill="#268BD2" d="M12.374,1.729c-5.942,0-10.77,4.827-10.77,10.771c0,5.944,4.828,10.772,10.77,10.772
		c5.944,0,10.771-4.828,10.771-10.772C23.145,6.556,18.318,1.729,12.374,1.729z M12.374,3.883c4.754,0,8.617,3.863,8.617,8.616
		c0,4.752-3.863,8.618-8.617,8.618V3.883z"/>
</g>
<g id="Ebene_17" display="none">
	<g transform="matrix(-1 0 0 1 16 0)" display="inline">
		<path fill="#268BD2" d="M-7.229,23.271V1.646L6.673,12.458L-7.229,23.271z"/>
		<path fill-opacity="0.1" d="M-7.229,23.271V1.646L6.673,12.458L-7.229,23.271z"/>
		<path fill="#268BD2" d="M0.494,23.271V1.646l13.902,10.813L0.494,23.271z"/>
	</g>
</g>
<g id="Ebene_4" display="none">
	<path display="inline" d="M21.865,18.75c-0.28-0.013-0.554-0.092-0.789-0.244l-7.891-4.688c-0.446-0.281-0.69-0.8-0.69-1.318
		s0.246-1.037,0.69-1.318l7.891-4.688c0.234-0.152,0.509-0.231,0.789-0.244h0.247h1.329v12.5h-1.33H21.865z"/>
	<path display="inline" d="M10.927,18.75c-0.279-0.013-0.553-0.092-0.789-0.244l-7.891-4.688c-0.445-0.281-0.689-0.8-0.689-1.318
		s0.246-1.037,0.689-1.318l7.891-4.688c0.234-0.152,0.51-0.231,0.789-0.244h0.247h1.329v12.5h-1.329H10.927z"/>
</g>
<g id="Ebene_7" display="none">
	<path display="inline" fill="#DC322F" d="M3.504,2.276h17.561c0.693,0,1.254,0.562,1.254,1.254v17.561
		c0,0.693-0.561,1.255-1.254,1.255H3.504c-0.693,0-1.254-0.562-1.254-1.255V3.53C2.25,2.837,2.811,2.276,3.504,2.276z"/>
</g>
<g id="Ebene_8">
	<g transform="translate(-305 -201)">
		<path fill="#268BD2" d="M306.065,223.221v-12.197c0-0.763,0.793-0.763,0.793-0.763h5.306v4.574h-3.049v6.103h9.147v-3.049h3.051
			v5.332c0,0.728-0.764,0.763-0.764,0.763h-13.722C306.827,223.983,306.065,223.983,306.065,223.221L306.065,223.221z"/>
		<path fill="#268BD2" d="M314.451,202.638c-0.762,0-0.762,0.762-0.762,0.762v12.197c0,0.763,0.762,0.763,0.762,0.763h13.721
			c0,0,0.764,0,0.764-0.763V203.4c0-0.762-0.764-0.762-0.764-0.762H314.451z M316.738,207.212h9.147v6.093h-9.147V207.212z"/>
	</g>
</g>
<g id="Ebene_9" display="none">
	<path display="inline" d="M6.02,2.776h12.963c4.861,0,4.861,0,4.861,4.861v6.481c0,4.861,0,4.861-4.861,4.861
		c-1.823,0-0.71-0.015-2.53-0.015c0.608,0.52,1.175,1.288,0.856,2.131c-0.337,1.224-2.104,1.527-2.86,0.527
		c-1.41-1.424-2.193-2.817-3.567-4.277c1.455-1.539,2.314-3.02,3.813-4.516c0.985-0.911,2.811-0.095,2.732,1.264
		c0.032,0.705-0.519,1.185-0.978,1.637c2.036-0.02,0.5,0.087,2.531,0.014c1.62,0,1.62,0,1.62-1.62V7.644c0-1.62,0-1.62-1.62-1.62
		H6.018c-1.621,0-1.621,0-1.621,1.62v6.481c0,1.62,1.621,1.62,1.621,1.62h1.62c0,0,1.62,0,1.62,1.621c0,1.62,0,1.62-1.62,1.62h-1.62
		c-4.861,0-4.861,0-4.861-4.861V7.644c0-4.861,0-4.861,4.861-4.861"/>
</g>
<g id="Ebene_10" display="none">
	<path display="inline" d="M18.98,22.223H6.018c-4.861,0-4.861,0-4.861-4.861V10.88c0-4.861,0-4.861,4.861-4.861
		c1.823,0,0.71,0.015,2.53,0.015c-0.608-0.52-1.175-1.288-0.856-2.131c0.337-1.224,2.104-1.527,2.86-0.527
		c1.41,1.424,2.193,2.817,3.567,4.277c-1.455,1.539-2.314,3.02-3.813,4.516c-0.985,0.911-2.811,0.095-2.732-1.264
		C7.541,10.199,8.092,9.72,8.551,9.268c-2.036,0.02-0.5-0.087-2.531-0.014c-1.62,0-1.62,0-1.62,1.62v6.481c0,1.62,0,1.62,1.62,1.62
		h12.963c1.621,0,1.621,0,1.621-1.62v-6.481c0-1.62-1.621-1.62-1.621-1.62h-1.62c0,0-1.62,0-1.62-1.621c0-1.62,0-1.62,1.62-1.62
		h1.62c4.861,0,4.861,0,4.861,4.861v6.481c0,4.861,0,4.861-4.861,4.861"/>
</g>
<g id="Ebene_11" display="none">
	<g display="inline">
		<path d="M17.116,1.751c-0.179,0-0.336,0.157-0.336,0.336v0.84c-0.398,0.102-0.748,0.3-1.093,0.504l-0.63-0.672
			c-0.127-0.126-0.336-0.126-0.463,0l-1.093,1.093c-0.126,0.126-0.126,0.336,0,0.462l0.672,0.63
			C13.97,5.29,13.772,5.637,13.67,6.037h-0.839c-0.178,0-0.336,0.157-0.336,0.336v1.512c0,0.178,0.158,0.336,0.336,0.336h0.839
			c0.103,0.397,0.3,0.747,0.504,1.092l-0.672,0.63c-0.126,0.126-0.126,0.336,0,0.462l1.093,1.093c0.127,0.126,0.336,0.126,0.463,0
			l0.63-0.672c0.345,0.204,0.694,0.401,1.093,0.504v0.84c0,0.179,0.157,0.336,0.336,0.336h1.512c0.179,0,0.336-0.157,0.336-0.336
			v-0.84c0.397-0.103,0.747-0.3,1.093-0.504l0.63,0.672c0.126,0.126,0.336,0.126,0.462,0l1.093-1.093
			c0.127-0.126,0.127-0.336,0-0.462l-0.672-0.63c0.204-0.345,0.402-0.693,0.504-1.092h0.84c0.179,0,0.336-0.158,0.336-0.336V6.373
			c0-0.179-0.157-0.336-0.336-0.336h-0.84c-0.102-0.397-0.3-0.747-0.504-1.093l0.672-0.63c0.127-0.126,0.127-0.336,0-0.462
			l-1.093-1.093c-0.126-0.126-0.336-0.126-0.462,0l-0.63,0.672c-0.346-0.204-0.693-0.402-1.093-0.504v-0.84
			c0-0.179-0.157-0.336-0.336-0.336H17.116z M17.873,5.782c0.741,0,1.344,0.602,1.344,1.344S18.614,8.47,17.873,8.47
			c-0.742,0-1.344-0.602-1.344-1.344S17.131,5.782,17.873,5.782z"/>
		<path d="M6.366,7.126c-0.179,0-0.336,0.157-0.336,0.336v0.84c-0.398,0.103-0.748,0.3-1.093,0.504l-0.63-0.672
			c-0.127-0.126-0.336-0.126-0.463,0L2.752,9.227c-0.126,0.126-0.126,0.336,0,0.462l0.672,0.63
			c-0.204,0.346-0.401,0.693-0.504,1.093H2.08c-0.178,0-0.336,0.157-0.336,0.336v1.511c0,0.179,0.158,0.336,0.336,0.336h0.84
			c0.103,0.398,0.3,0.748,0.504,1.093l-0.672,0.631c-0.126,0.126-0.126,0.336,0,0.462l1.093,1.093c0.127,0.126,0.336,0.126,0.463,0
			l0.63-0.672c0.345,0.203,0.694,0.401,1.093,0.504v0.84c0,0.179,0.157,0.336,0.336,0.336h1.512c0.179,0,0.336-0.157,0.336-0.336
			v-0.84c0.397-0.103,0.747-0.301,1.093-0.504l0.63,0.672c0.126,0.126,0.336,0.126,0.462,0l1.093-1.093
			c0.127-0.126,0.127-0.336,0-0.462l-0.672-0.631c0.204-0.345,0.402-0.692,0.504-1.093h0.84c0.179,0,0.336-0.157,0.336-0.336v-1.511
			c0-0.179-0.157-0.336-0.336-0.336h-0.84c-0.102-0.397-0.3-0.747-0.504-1.093l0.672-0.63c0.127-0.126,0.127-0.336,0-0.462
			l-1.093-1.093c-0.126-0.126-0.336-0.126-0.462,0l-0.63,0.672C8.96,8.602,8.613,8.404,8.214,8.302v-0.84
			c0-0.179-0.157-0.336-0.336-0.336H6.366z M7.123,11.157c0.741,0,1.344,0.603,1.344,1.344c0,0.742-0.603,1.344-1.344,1.344
			c-0.743,0-1.344-0.602-1.344-1.344C5.779,11.76,6.38,11.157,7.123,11.157z"/>
		<path d="M14.982,9.827c-0.05-0.002-0.074,0.02-0.126,0.042l-1.807,0.713c-0.208,0.086-0.297,0.379-0.209,0.589l0.377,1.05
			c-0.415,0.312-0.704,0.644-1.008,1.049l-1.049-0.461c-0.208-0.087-0.502,0.042-0.589,0.252l-0.714,1.721
			c-0.086,0.208,0.042,0.46,0.252,0.546l1.05,0.462c-0.072,0.503-0.074,0.997,0,1.512l-1.05,0.463
			c-0.208,0.086-0.297,0.252-0.21,0.462l0.672,1.806c0.086,0.208,0.379,0.298,0.588,0.21l1.05-0.421
			c0.312,0.417,0.687,0.746,1.092,1.05l-0.462,1.05c-0.085,0.208,0.002,0.502,0.21,0.588l1.805,0.714
			c0.209,0.086,0.377-0.042,0.463-0.252l0.462-1.05c0.503,0.07,0.997,0.073,1.512,0l0.421,1.05c0.086,0.208,0.379,0.297,0.589,0.21
			l1.721-0.672c0.209-0.086,0.339-0.38,0.253-0.589l-0.462-1.05c0.416-0.312,0.746-0.644,1.049-1.05l1.093,0.42
			c0.209,0.087,0.419,0,0.504-0.209l0.757-1.807c0.086-0.208-0.002-0.374-0.21-0.462L21.914,17.3c0.071-0.503,0.073-0.997,0-1.512
			l1.05-0.463c0.209-0.085,0.339-0.252,0.253-0.462l-0.757-1.807c-0.085-0.207-0.337-0.338-0.546-0.251l-1.049,0.462
			c-0.311-0.415-0.645-0.746-1.05-1.051l0.463-1.133c0.086-0.208-0.044-0.417-0.253-0.504l-1.722-0.713
			c-0.208-0.086-0.501,0.043-0.589,0.252l-0.42,1.05c-0.503-0.071-0.997-0.074-1.512,0l-0.463-1.05
			c-0.064-0.156-0.186-0.285-0.336-0.294L14.982,9.827z M16.536,13.858c1.484,0,2.688,1.202,2.688,2.688s-1.203,2.688-2.688,2.688
			s-2.688-1.202-2.688-2.688S15.052,13.858,16.536,13.858z"/>
	</g>
</g>
<g id="Ebene_12" display="none">
	<path display="inline" d="M1.593,5.684v2.909c1.554,0.017,2.811-0.064,4.362,0c2.097,0,2.162,0,2.909,1.454l1.454,5.817
		c1.454,4.362,1.454,4.362,3.182,4.362h4.907c-0.547,0.467-1.054,1.156-0.77,1.912c0.303,1.098,1.888,1.372,2.566,0.473
		c1.268-1.277,1.97-2.527,3.203-3.837c-1.306-1.382-2.078-2.711-3.424-4.054c-0.884-0.817-2.521-0.084-2.451,1.134
		c-0.029,0.633,0.466,1.063,0.876,1.469c-1.825-0.017-0.447,0.065-2.271,0c-2.226,0-2.242,0-2.909-1.454l-1.454-5.816
		C10.32,5.69,10.32,5.69,7.412,5.69L1.593,5.684z"/>
	<path display="inline" d="M19.174,2.78c-0.657-0.043-1.347,0.32-1.537,1.005c-0.285,0.756,0.224,1.444,0.77,1.911h-4.908
		c-1.132,0-1.524,0.026-2.068,1.252c0.317,0.701,0.605,1.596,1.031,2.875l0.009,0.026l0.402,1.616l0.352-1.406
		c0.666-1.454,0.684-1.454,2.908-1.454c1.824-0.064,0.445,0.017,2.273,0c-0.412,0.401-0.906,0.833-0.879,1.469
		c-0.069,1.218,1.571,1.95,2.455,1.132c1.347-1.342,2.116-2.671,3.423-4.053c-1.233-1.31-1.934-2.559-3.201-3.837
		c-0.254-0.337-0.636-0.508-1.03-0.534 M9.215,14.473l-0.352,1.412c-0.747,1.454-0.812,1.454-2.909,1.454
		c-1.551,0.063-2.808-0.018-4.362,0v2.908H7.41c1.919,0,2.572-0.028,3.212-1.284c-0.276-0.681-0.563-1.562-0.995-2.854l-0.009-0.025
		L9.215,14.473z"/>
</g>
<g id="Ebene_13" display="none">
	<path display="inline" d="M13.068,8.804L11.919,9.98c1.415,1.492,1.415,3.776,0,5.269l1.149,1.177
		C15.313,14.053,15.313,11.176,13.068,8.804z"/>
	<path display="inline" d="M14.794,8.218c2.331,2.38,2.331,6.999,0,9.375l1.725,1.757c3.339-3.405,3.339-9.485,0-12.891
		L14.794,8.218z"/>
	<path display="inline" d="M17.669,5.877c4.1,3.953,4.037,10.108,0,14.061l1.725,1.756c5.361-5.269,5.422-12.305,0-17.573
		L17.669,5.877z"/>
	<path display="inline" d="M9.375,5.684L6.25,8.809v7.813l3.125,3.125v-4.688l2.344-2.339l-2.344-2.344V5.684z"/>
	<path display="inline" d="M2.734,8.809c-0.611,0-1.172,0.65-1.172,1.306v5.199c0,0.755,0.511,1.306,1.172,1.306H6.25V8.807
		L2.734,8.809z"/>
</g>
<g id="Ebene_14" display="none">
	<path display="inline" fill="#010101" d="M21.869,11.672l-4.165,4.164c-2.299,2.301-6.028,2.301-8.327,0
		c-0.362-0.361-0.646-0.768-0.895-1.188l1.936-1.936c0.092-0.092,0.205-0.145,0.314-0.207c0.133,0.456,0.367,0.889,0.727,1.248
		c1.147,1.148,3.016,1.148,4.163,0l4.164-4.162c1.147-1.149,1.147-3.018,0-4.166c-1.148-1.147-3.016-1.147-4.164,0l-1.48,1.482
		C12.94,6.44,11.646,6.314,10.386,6.5l3.154-3.156c2.301-2.299,6.028-2.299,8.329,0C24.168,5.645,24.168,9.373,21.869,11.672z
		 M10.859,18.52l-1.482,1.482c-1.148,1.146-3.016,1.146-4.164,0c-1.148-1.15-1.148-3.018,0-4.166l4.164-4.164
		c1.148-1.148,3.016-1.148,4.163,0c0.359,0.359,0.592,0.792,0.728,1.248c0.11-0.063,0.222-0.115,0.313-0.207l1.935-1.935
		c-0.246-0.421-0.53-0.826-0.894-1.187c-2.299-2.301-6.028-2.301-8.327,0l-4.164,4.162c-2.299,2.301-2.299,6.029,0,8.328
		s6.028,2.299,8.328,0l3.155-3.154C13.353,19.111,12.059,18.986,10.859,18.52z"/>
</g>
<g id="Ebene_15" display="none">
	<path display="inline" d="M16.062,9.484h7.125c0.395,0,0.712,0.317,0.712,0.712v1.425c0,0.394-0.317,0.712-0.712,0.712h-7.125
		c-0.395,0-0.712-0.318-0.712-0.712v-1.425C15.35,9.801,15.667,9.484,16.062,9.484z M8.938,15.183h7.124
		c0.395,0,0.713,0.318,0.713,0.713v1.425c0,0.394-0.318,0.713-0.713,0.713H8.938c-0.395,0-0.713-0.319-0.713-0.713v-1.425
		C8.225,15.501,8.543,15.183,8.938,15.183z M1.813,6.634h7.125c0.394,0,0.712,0.318,0.712,0.713v1.424
		c0,0.395-0.318,0.713-0.712,0.713H1.813c-0.395,0-0.712-0.318-0.712-0.713V7.347C1.101,6.952,1.418,6.634,1.813,6.634z
		 M13.925,3.784v17.099c0,0.788-0.636,1.425-1.425,1.425c-0.789,0-1.424-0.637-1.424-1.425V3.784c0-0.789,0.635-1.425,1.424-1.425
		C13.289,2.359,13.925,2.995,13.925,3.784z M21.049,3.784v17.099c0,0.788-0.637,1.425-1.425,1.425c-0.79,0-1.425-0.637-1.425-1.425
		V3.784c0-0.789,0.635-1.425,1.425-1.425C20.412,2.359,21.049,2.995,21.049,3.784z M6.8,3.784v17.099
		c0,0.788-0.636,1.425-1.425,1.425s-1.425-0.637-1.425-1.425V3.784c0-0.789,0.636-1.425,1.425-1.425S6.8,2.995,6.8,3.784z"/>
</g>
<g id="Ebene_5" display="none">
	<path display="inline" fill="#268BD2" d="M3.323,2.157h5.425c0.593,0,1.072,0.364,1.072,0.812v18.564
		c0,0.45-0.479,0.813-1.072,0.813H3.323c-0.593,0-1.073-0.362-1.073-0.813V2.969C2.25,2.521,2.729,2.157,3.323,2.157z"/>
	<path display="inline" fill="#268BD2" d="M15.94,2.157h5.425c0.594,0,1.072,0.364,1.072,0.812v18.564
		c0,0.45-0.479,0.813-1.072,0.813H15.94c-0.594,0-1.073-0.362-1.073-0.813V2.969C14.867,2.521,15.347,2.157,15.94,2.157z"/>
</g>
<g id="Ebene_6" display="none">
	<g transform="translate(-79.99995 -606)" display="inline">
		<path fill="#859900" d="M82.716,607.829v21.343h2.174l16.307-8.803c0.676-0.369,1.086-1.117,1.086-1.869s-0.41-1.501-1.086-1.868
			l-16.307-8.804H82.716z"/>
	</g>
</g>
<g id="Ebene_16">
</g>
</svg>
